{"hash":"6aa63f5817a83838e2bd5fa4797340c9415fda27","data":{"blogs":{"pageInfo":{"totalPages":2,"totalItems":7,"currentPage":2,"perPage":4},"edges":[{"node":{"id":"3","title":"博客3","content":"试试水dsad\n阿萨德\n# 大萨达\n- 1222\n- 4343","description":"1.大多数\n2.测试","created_at":"2021-01-28T06:19:01.302Z","updated_at":"2021-01-28T06:19:09.564Z"}},{"node":{"id":"2","title":"博客2","content":"试试水dsad\n阿萨德\n# 大萨达\n- 1222\n- 4343","description":"1.大多数\n2.测试","created_at":"2021-01-28T06:18:53.072Z","updated_at":"2021-01-28T06:19:16.462Z"}},{"node":{"id":"1","title":"博客1","content":"试试水dsad\n阿萨德\n# 大萨达\n- 1222\n- 4343","description":"1.大多数\n2.测试","created_at":"2021-01-28T06:15:34.610Z","updated_at":"2021-01-28T06:15:46.101Z"}}]}},"context":{}}