{"hash":"6aa63f5817a83838e2bd5fa4797340c9415fda27","data":{"blogs":{"pageInfo":{"totalPages":2,"totalItems":7,"currentPage":1,"perPage":4},"edges":[{"node":{"id":"7","title":"博客7","content":"试试水dsad\n阿萨德\n# 大萨达\n- 1222\n- 4343","description":"1.大多数\n2.测试","created_at":"2021-01-28T06:19:54.573Z","updated_at":"2021-01-28T06:19:56.446Z"}},{"node":{"id":"6","title":"博客6","content":"试试水dsad\n阿萨德\n# 大萨达\n- 1222\n- 4343","description":"1.大多数\n2.测试","created_at":"2021-01-28T06:19:42.718Z","updated_at":"2021-01-28T06:19:43.950Z"}},{"node":{"id":"5","title":"博客5","content":"试试水dsad\n阿萨德\n# 大萨达\n- 1222\n- 4343","description":"1.大多数\n2.测试","created_at":"2021-01-28T06:19:34.136Z","updated_at":"2021-01-28T06:19:35.933Z"}},{"node":{"id":"4","title":"博客4","content":"试试水dsad\n阿萨德\n# 大萨达\n- 1222\n- 4343","description":"1.大多数\n2.测试","created_at":"2021-01-28T06:19:23.017Z","updated_at":"2021-01-28T06:19:24.218Z"}}]}},"context":{}}